Hw3
…
The above tree tell us that for a given bang value, the percentage of it being classified as spam is 61.

Zoo_train_dummy <- as_tibble(class2ind(spam_train$yesno)) |> 
  mutate(across(everything(), as.factor)) |>
  add_column(bang = spam_train$bang)
Zoo_train_dummy

# A tibble: 3,682 × 3
   n     y      bang
   <fct> <fct> <dbl>
 1 0     1     0.778
 2 0     1     0.372
 3 0     1     0.276
 4 0     1     0.137
 5 0     1     0.135
 6 0     1     0    
 7 0     1     0.164
 8 0     1     0    
 9 0     1     0.244
10 0     1     0.462
# ℹ 3,672 more rows
…
